Thu Apr 27 11:52:02 2017,14291,172.16.64.209,carte_demonstration_limites_adm,-1,95503.110000 6082126.950000 1174559.030000 7161182.870000,-1.000000 -1.000000,,normal execution
Thu Apr 27 11:52:03 2017,14291,172.16.64.209,carte_demonstration_limites_adm,3,-538430.269731 5970411.383781 1808492.409731 7272898.436219,635031.070000 6621654.910000,,normal execution
Thu Apr 27 11:52:04 2017,14291,172.16.64.209,carte_demonstration_limites_adm,3,-538430.269731 5970411.383781 1808492.409731 7272898.436219,635031.070000 6621654.910000,,normal execution
Thu Apr 27 11:52:04 2017,14322,172.16.64.209,carte_demonstration_limites_adm,3,-538430.269731 5970411.383781 1808492.409731 7272898.436219,635031.070000 6621654.910000,layer0 ,normal execution
Thu Apr 27 12:02:41 2017,14291,172.16.64.209,carte_demonstration_limites_adm,-1,95503.110000 6082126.950000 1174559.030000 7161182.870000,-1.000000 -1.000000,,normal execution
Thu Apr 27 12:02:41 2017,14291,172.16.64.209,carte_demonstration_limites_adm,-1,-248852.573410 6082687.789875 1518914.713410 7160622.030125,-1.000000 -1.000000,,normal execution
